^C:\USERS\HANNAN\ONEDRIVE\CODE\SMART_STRINGS\SMART_STRINGS\SOURCE.CPP
/c /ZI /nologo /W3 /WX- /sdl /Od /Oy- /D _MBCS /Gm /EHsc /RTC1 /MDd /GS /fp:precise /Zc:wchar_t /Zc:forScope /Zc:inline /Fo"DEBUG\\" /Fd"DEBUG\VC140.PDB" /Gd /TP /analyze- C:\USERS\HANNAN\ONEDRIVE\CODE\SMART_STRINGS\SMART_STRINGS\SOURCE.CPP
^C:\USERS\HANNAN\ONEDRIVE\CODE\SMART_STRINGS\SMART_STRINGS\STRINGBUFFER.CPP
/c /ZI /nologo /W3 /WX- /sdl /Od /Oy- /D _MBCS /Gm /EHsc /RTC1 /MDd /GS /fp:precise /Zc:wchar_t /Zc:forScope /Zc:inline /Fo"DEBUG\\" /Fd"DEBUG\VC140.PDB" /Gd /TP /analyze- C:\USERS\HANNAN\ONEDRIVE\CODE\SMART_STRINGS\SMART_STRINGS\STRINGBUFFER.CPP
