^C:\USERS\HANNAN\ONEDRIVE\CODE\SMART_STRING_COW_WITH_REFCOUNT\SMART_STRING_COW_WITH_REFCOUNT\DEBUG\SOURCE.OBJ|C:\USERS\HANNAN\ONEDRIVE\CODE\SMART_STRING_COW_WITH_REFCOUNT\SMART_STRING_COW_WITH_REFCOUNT\DEBUG\STRINGBUFFER.OBJ
C:\USERS\HANNAN\ONEDRIVE\CODE\SMART_STRING_COW_WITH_REFCOUNT\DEBUG\SMART_STRING_COW_WITH_REFCOUNT.ILK
C:\USERS\HANNAN\ONEDRIVE\CODE\SMART_STRING_COW_WITH_REFCOUNT\DEBUG\SMART_STRING_COW_WITH_REFCOUNT.EXE
C:\USERS\HANNAN\ONEDRIVE\CODE\SMART_STRING_COW_WITH_REFCOUNT\DEBUG\SMART_STRING_COW_WITH_REFCOUNT.PDB
